P8105 Homework 3 \[td2704\]
================

## Problem 1

``` r
data("instacart")
```

``` r
instacart
```

    ## # A tibble: 1,384,617 × 15
    ##    order_id product_id add_to_cart_order reordered user_id eval_set order_number
    ##       <int>      <int>             <int>     <int>   <int> <chr>           <int>
    ##  1        1      49302                 1         1  112108 train               4
    ##  2        1      11109                 2         1  112108 train               4
    ##  3        1      10246                 3         0  112108 train               4
    ##  4        1      49683                 4         0  112108 train               4
    ##  5        1      43633                 5         1  112108 train               4
    ##  6        1      13176                 6         0  112108 train               4
    ##  7        1      47209                 7         0  112108 train               4
    ##  8        1      22035                 8         1  112108 train               4
    ##  9       36      39612                 1         0   79431 train              23
    ## 10       36      19660                 2         1   79431 train              23
    ## # … with 1,384,607 more rows, and 8 more variables: order_dow <int>,
    ## #   order_hour_of_day <int>, days_since_prior_order <int>, product_name <chr>,
    ## #   aisle_id <int>, department_id <int>, aisle <chr>, department <chr>
…
sum(pull(aisle_info,num_items_ordered)) # to make sure we total the number of rows in dataset
```

    ## [1] 1384617

``` r
aisle_info
```

    ## # A tibble: 134 × 3
    ## # Groups:   aisle, aisle_id [134]
    ##    aisle                         aisle_id num_items_ordered
    ##    <chr>                            <int>             <int>
    ##  1 fresh vegetables                    83            150609
    ##  2 fresh fruits                        24            150473
    ##  3 packaged vegetables fruits         123             78493
    ##  4 yogurt                             120             55240
    ##  5 packaged cheese                     21             41699
    ##  6 water seltzer sparkling water      115             36617
    ##  7 milk                                84             32644
    ##  8 chips pretzels                     107             31269
    ##  9 soy lactosefree                     91             26240
    ## 10 bread                              112             23635
    ## # … with 124 more rows
…
